%YAML 1.1
%TAG !u! tag:unity3d.com,2011:
--- !u!114 &11400000
MonoBehaviour:
  m_ObjectHideFlags: 0
  m_CorrespondingSourceObject: {fileID: 0}
  m_PrefabInstance: {fileID: 0}
  m_PrefabAsset: {fileID: 0}
  m_GameObject: {fileID: 0}
  m_Enabled: 1
  m_EditorHideFlags: 0
  m_Script: {fileID: 11500000, guid: 52fe8948c51efbb4797b36d5099b3ce8, type: 3}
  m_Name: 27376F82-2A13-4F12-BE42-00C2F201A526
  m_EditorClassIdentifier: 
  objectName: Master
  id: 4056684167
  guid: 27376F82-2A13-4F12-BE42-00C2F201A526
