%YAML 1.1
%TAG !u! tag:unity3d.com,2011:
--- !u!114 &11400000
MonoBehaviour:
  m_ObjectHideFlags: 0
  m_CorrespondingSourceObject: {fileID: 0}
  m_PrefabInstance: {fileID: 0}
  m_PrefabAsset: {fileID: 0}
  m_GameObject: {fileID: 0}
  m_Enabled: 1
  m_EditorHideFlags: 0
  m_Script: {fileID: 11500000, guid: dd58778093a2ccc448d8561376b94305, type: 3}
  m_Name: 1E29F6B7-9344-4C0A-8029-F897B74C15ED
  m_EditorClassIdentifier: 
  objectName: outdoor
  id: 144697359
  guid: 1E29F6B7-9344-4C0A-8029-F897B74C15ED
